^C:\USERS\משתמש\DESKTOP\DEBUGWORKSHOP\DEBUGWORKSHOP\PASSWORD\PASSWORD.CPP
C:\USERS\משתמש\DESKTOP\DEBUGWORKSHOP\DEBUGWORKSHOP\PASSWORD\DEBUG\VC142.PDB
C:\USERS\משתמש\DESKTOP\DEBUGWORKSHOP\DEBUGWORKSHOP\PASSWORD\DEBUG\VC142.IDB
C:\USERS\משתמש\DESKTOP\DEBUGWORKSHOP\DEBUGWORKSHOP\PASSWORD\DEBUG\PASSWORD.OBJ
