^C:\USERS\משתמש\DESKTOP\DEBUGWORKSHOP\DEBUGWORKSHOP\IMAGESANDWORDS\IMAGES.CPP
C:\USERS\משתמש\DESKTOP\DEBUGWORKSHOP\DEBUGWORKSHOP\IMAGESANDWORDS\DEBUG\VC142.PDB
C:\USERS\משתמש\DESKTOP\DEBUGWORKSHOP\DEBUGWORKSHOP\IMAGESANDWORDS\DEBUG\VC142.IDB
C:\USERS\משתמש\DESKTOP\DEBUGWORKSHOP\DEBUGWORKSHOP\IMAGESANDWORDS\DEBUG\IMAGES.OBJ
