^C:\USERS\משתמש\DESKTOP\DEBUGWORKSHOP\DEBUGWORKSHOP\IMAGESANDWORDS\DEBUG\IMAGES.OBJ
C:\USERS\משתמש\DESKTOP\DEBUGWORKSHOP\DEBUGWORKSHOP\DEBUG\IMAGESANDWORDS.EXE
C:\USERS\משתמש\DESKTOP\DEBUGWORKSHOP\DEBUGWORKSHOP\DEBUG\IMAGESANDWORDS.ILK
C:\USERS\משתמש\DESKTOP\DEBUGWORKSHOP\DEBUGWORKSHOP\DEBUG\IMAGESANDWORDS.PDB
