^C:\USERS\משתמש\DESKTOP\DEBUGWORKSHOP\DEBUGWORKSHOP\SAFEANDSOUND\PART1.CPP|C:\USERS\משתמש\DESKTOP\DEBUGWORKSHOP\DEBUGWORKSHOP\SAFEANDSOUND\PART2.CPP|C:\USERS\משתמש\DESKTOP\DEBUGWORKSHOP\DEBUGWORKSHOP\SAFEANDSOUND\SAFEANDSOUND.CPP
C:\USERS\משתמש\DESKTOP\DEBUGWORKSHOP\DEBUGWORKSHOP\SAFEANDSOUND\DEBUG\VC142.PDB
C:\USERS\משתמש\DESKTOP\DEBUGWORKSHOP\DEBUGWORKSHOP\SAFEANDSOUND\DEBUG\VC142.IDB
C:\USERS\משתמש\DESKTOP\DEBUGWORKSHOP\DEBUGWORKSHOP\SAFEANDSOUND\DEBUG\SAFEANDSOUND.OBJ
C:\USERS\משתמש\DESKTOP\DEBUGWORKSHOP\DEBUGWORKSHOP\SAFEANDSOUND\DEBUG\PART2.OBJ
C:\USERS\משתמש\DESKTOP\DEBUGWORKSHOP\DEBUGWORKSHOP\SAFEANDSOUND\DEBUG\PART1.OBJ
^C:\USERS\משתמש\DESKTOP\DEBUGWORKSHOP\DEBUGWORKSHOP\SAFEANDSOUND\SAFEANDSOUND.CPP
C:\USERS\משתמש\DESKTOP\DEBUGWORKSHOP\DEBUGWORKSHOP\SAFEANDSOUND\DEBUG\VC142.PDB
C:\USERS\משתמש\DESKTOP\DEBUGWORKSHOP\DEBUGWORKSHOP\SAFEANDSOUND\DEBUG\VC142.IDB
C:\USERS\משתמש\DESKTOP\DEBUGWORKSHOP\DEBUGWORKSHOP\SAFEANDSOUND\DEBUG\SAFEANDSOUND.OBJ
^C:\USERS\משתמש\DESKTOP\DEBUGWORKSHOP\DEBUGWORKSHOP\SAFEANDSOUND\PART2.CPP
C:\USERS\משתמש\DESKTOP\DEBUGWORKSHOP\DEBUGWORKSHOP\SAFEANDSOUND\DEBUG\VC142.PDB
C:\USERS\משתמש\DESKTOP\DEBUGWORKSHOP\DEBUGWORKSHOP\SAFEANDSOUND\DEBUG\VC142.IDB
C:\USERS\משתמש\DESKTOP\DEBUGWORKSHOP\DEBUGWORKSHOP\SAFEANDSOUND\DEBUG\PART2.OBJ
^C:\USERS\משתמש\DESKTOP\DEBUGWORKSHOP\DEBUGWORKSHOP\SAFEANDSOUND\PART1.CPP
C:\USERS\משתמש\DESKTOP\DEBUGWORKSHOP\DEBUGWORKSHOP\SAFEANDSOUND\DEBUG\VC142.PDB
C:\USERS\משתמש\DESKTOP\DEBUGWORKSHOP\DEBUGWORKSHOP\SAFEANDSOUND\DEBUG\VC142.IDB
C:\USERS\משתמש\DESKTOP\DEBUGWORKSHOP\DEBUGWORKSHOP\SAFEANDSOUND\DEBUG\PART1.OBJ
